INDEX VERSION 1.131+C:\Users\91885\eclipse-workspace\Kiran\.metadata\.plugins\org.eclipse.jdt.core
923778304.index
721570495.index
1437853200.index
4238419212.index
1893343733.index
3254946170.index
3453315345.index
1587187568.index
869530574.index
1103002918.index
611695106.index
1703211693.index
3463456175.index
469554644.index
2666627800.index
2206999979.index
1116552318.index
3103727731.index
1865797976.index
25066411.index
508475497.index
2989025060.index
3953323938.index
2794134828.index
2031611055.index
208749743.index
4100967252.index
2114709869.index
1129025522.index
3630510589.index
2359218804.index
2313678450.index
891894337.index
2091642783.index
1323124547.index
2411030882.index
4232220250.index
3575235991.index
3194415231.index
888322185.index
140348740.index
3370892899.index
1765805855.index
1958135644.index
1293008049.index
4231127496.index
4159713141.index
184809549.index
2972319578.index
1383148692.index
2265256544.index
3757638852.index
458779899.index
2489058804.index
2980560964.index
3684256022.index
3863197294.index
2303712.index
1291013244.index
3243455166.index
3005096761.index
1970910682.index
591271743.index
2340811830.index
3194187341.index
224878437.index
141776981.index
2159265395.index
1132799678.index
3853961771.index
871059249.index
1552841141.index
4034426170.index
936335614.index
157580400.index
1014281293.index
475850248.index
3199051818.index
2114249411.index
3229326512.index
908475179.index
2769694203.index
2297198260.index
3593640713.index
2072067413.index
2712805112.index
2928742004.index
716145692.index
1705434677.index
4038171760.index
3079319304.index
3176840940.index
1940544867.index
911717770.index
2666689590.index
3032493953.index
3922941287.index
2597173882.index
2159116779.index
625357953.index
3586075421.index
762868222.index
922740066.index
884824400.index
3439718083.index
2387349871.index
229720214.index
1242027337.index
88759288.index
329677974.index
2548063025.index
11244428.index
3434552501.index
3596743511.index
2714558665.index
2982355793.index
4291291736.index
2972252583.index
1718843382.index
1283018903.index
2408139817.index
1709312652.index
2979327292.index
2119826296.index
81764293.index
603101451.index
1505443220.index
4074019466.index
2218333868.index
294278242.index
779515098.index
2958425535.index
